<svg width="512" height="512" viewBox="0 0 512 512" fill="none" xmlns="http://www.w3.org/2000/svg">
<path d="M256 512C397.385 512 512 397.385 512 256C512 114.615 397.385 0 256 0C114.615 0 0 114.615 0 256C0 397.385 114.615 512 256 512Z" fill="#363738"/>
<path d="M67 261.5C67 173.5 136 91 249 91V261.5C249 273 373 236.5 373 346.5C373 361.5 355 421.5 249 421.5C143 421.5 67 332.391 67 261.5Z" fill="white"/>
<circle cx="256" cy="256" r="25" fill="url(#paint0_linear)"/>
<defs>
<linearGradient id="paint0_linear" x1="231" y1="231" x2="277" y2="281" gradientUnits="userSpaceOnUse">
<stop stop-color="#BD0000"/>
<stop offset="1" stop-color="#FF8787"/>
</linearGradient>
</defs>
</svg>
