These are your Discord backup codes for account okabrionz@gmail.com.  Keep them safe!

* od11-j5wr 
* st6k-8af6 
* nzb3-i0kn 
* 1yzy-hlig 
* td9a-n245 
* zxyx-qo2t 
* 1dpw-qn6k 
* 6ya5-p60a 
* qv8w-2qet 
* i4a1-rb76 