<svg xmlns="http://www.w3.org/2000/svg" width="1000px" height="1000px" >
<defs> 
<linearGradient id="lgrad" x1="0%" y1="19%" x2="100%" y2="81%" > 
<stop offset="0%" style="stop-color:rgb(11,128,112);stop-opacity:1" />
<stop offset="1%" style="stop-color:rgb(11,128,112);stop-opacity:1" />
<stop offset="45%" style="stop-color:rgb(26,196,165);stop-opacity:1" />
<stop offset="100%" style="stop-color:rgb(94,255,175);stop-opacity:1" />
</linearGradient> 
</defs>
<rect x="0" y="0" width="100%" height="100%" fill="url(#lgrad)"/>
</svg>